<?xml version="1.0" encoding="UTF-8" standalone="no"?>
<!-- Created with Inkscape (http://www.inkscape.org/) -->

<svg
   xmlns:dc="http://purl.org/dc/elements/1.1/"
   xmlns:cc="http://creativecommons.org/ns#"
   xmlns:rdf="http://www.w3.org/1999/02/22-rdf-syntax-ns#"
   xmlns:svg="http://www.w3.org/2000/svg"
   xmlns="http://www.w3.org/2000/svg"
   xmlns:sodipodi="http://sodipodi.sourceforge.net/DTD/sodipodi-0.dtd"
   xmlns:inkscape="http://www.inkscape.org/namespaces/inkscape"
   width="431.388mm"
   height="108.22182mm"
   viewBox="0 0 431.388 108.22182"
   version="1.1"
   id="svg8"
   inkscape:version="0.92.2 5c3e80d, 2017-08-06"
   sodipodi:docname="protein_splitted.svg">
  <sodipodi:namedview
     id="base"
     pagecolor="#ffffff"
     bordercolor="#666666"
     borderopacity="1.0"
     inkscape:pageopacity="0.0"
     inkscape:pageshadow="2"
     inkscape:zoom="0.54995772"
     inkscape:cx="495.86586"
     inkscape:cy="-244.21345"
     inkscape:document-units="mm"
     inkscape:current-layer="layer1"
     showgrid="true"
     inkscape:window-width="1920"
     inkscape:window-height="1019"
     inkscape:window-x="0"
     inkscape:window-y="0"
     inkscape:window-maximized="1"
     inkscape:snap-bbox="true"
     inkscape:bbox-paths="true"
     inkscape:bbox-nodes="true"
     inkscape:snap-bbox-edge-midpoints="true"
     inkscape:snap-bbox-midpoints="true"
     inkscape:snap-text-baseline="true"
     units="mm"
     inkscape:snap-grids="false"
     inkscape:snap-midpoints="true"
     fit-margin-top="0"
     fit-margin-left="0"
     fit-margin-right="0"
     fit-margin-bottom="0">
    <inkscape:grid
       type="xygrid"
       id="grid5651"
       originx="45.751795"
       originy="-137.32923" />
  </sodipodi:namedview>
  <defs
     id="defs2" />
  <metadata
     id="metadata5">
    <rdf:RDF>
      <cc:Work
         rdf:about="">
        <dc:format>image/svg+xml</dc:format>
        <dc:type
           rdf:resource="http://purl.org/dc/dcmitype/StillImage" />
        <dc:title></dc:title>
      </cc:Work>
    </rdf:RDF>
  </metadata>
  <g
     id="layer1"
     inkscape:groupmode="layer"
     inkscape:label="Layer 1"
     transform="translate(35.726668,109.66439)">
    <g
       id="g4612"
       transform="translate(0,-31.043414)">
      <g
         id="g4542">
        <path
           style="fill:#9e9e9e;fill-opacity:1;fill-rule:nonzero;stroke:#000000;stroke-width:0.74083334;stroke-miterlimit:4;stroke-dasharray:none;stroke-dashoffset:0;stroke-opacity:1"
           d="m -22.509612,-4.2338061 a 7.3869031,7.4052899 4.8533902e-4 0 1 -10.435214,0.48931 7.3869031,7.4052899 4.8533902e-4 0 1 -0.488404,-10.4612209 7.3869031,7.4052899 4.8533902e-4 0 1 10.435277,-0.489306 7.3869031,7.4052899 4.8533902e-4 0 1 0.488091,10.4612169 z"
           id="path1061"
           inkscape:connector-curvature="0" />
        <path
           style="fill:#9e9e9e;fill-opacity:1;fill-rule:nonzero;stroke:#000000;stroke-width:0.74083304;stroke-miterlimit:4;stroke-dasharray:none;stroke-dashoffset:0;stroke-opacity:1"
           d="m 39.911624,-4.6776861 a 7.3840014,7.402381 4.7255596e-4 0 1 -10.361376,1.30283 7.3840014,7.402381 4.7255596e-4 0 1 -1.299597,-10.3871969 7.3840014,7.402381 4.7255596e-4 0 1 10.361407,-1.302519 7.3840014,7.402381 4.7255596e-4 0 1 1.299597,10.3871659 z"
           id="path1442"
           inkscape:connector-curvature="0" />
        <path
           style="fill:#9e9e9e;fill-opacity:1;fill-rule:nonzero;stroke:#000000;stroke-width:0.74083334;stroke-miterlimit:4;stroke-dasharray:none;stroke-dashoffset:0;stroke-opacity:1"
           d="m 64.658627,-16.61212 a 7.3876423,7.4060306 5.9111563e-5 0 1 7.82277,6.9424139 7.3876423,7.4060306 5.9111563e-5 0 1 -6.925207,7.84227 7.3876423,7.4060306 5.9111563e-5 0 1 -7.822801,-6.942442 7.3876423,7.4060306 5.9111563e-5 0 1 6.925238,-7.8422419 z"
           id="path8669"
           inkscape:connector-curvature="0" />
        <path
           style="fill:#9e9e9e;fill-opacity:1;fill-rule:nonzero;stroke:#000000;stroke-width:0.74083334;stroke-miterlimit:4;stroke-dasharray:none;stroke-dashoffset:0;stroke-opacity:1"
           d="m 56.73552,-7.3403961 a 7.3832223,7.4016002 2.3955282e-4 0 1 -9.015937,5.27965 7.3832223,7.4016002 2.3955282e-4 0 1 -5.266573,-9.0383789 7.3832223,7.4016002 2.3955282e-4 0 1 9.015969,-5.279681 7.3832223,7.4016002 2.3955282e-4 0 1 5.266541,9.0384099 z"
           id="path6341"
           inkscape:connector-curvature="0" />
        <path
           style="fill:#9e9e9e;fill-opacity:1;fill-rule:nonzero;stroke:#000000;stroke-width:0.74083334;stroke-miterlimit:4;stroke-dasharray:none;stroke-dashoffset:0;stroke-opacity:1"
           d="m -13.599133,-1.9215061 a 7.3873379,7.3689961 89.999851 0 1 -6.139296,-8.4419369 7.3873379,7.3689961 89.999851 0 1 8.421014,-6.154606 7.3873379,7.3689961 89.999851 0 1 6.1392937,8.4419729 7.3873379,7.3689961 89.999851 0 1 -8.4210117,6.15457 z"
           id="path5012"
           inkscape:connector-curvature="0" />
        <path
           style="fill:#9e9e9e;fill-opacity:1;fill-rule:nonzero;stroke:#000000;stroke-width:0.74083334;stroke-miterlimit:4;stroke-dasharray:none;stroke-dashoffset:0;stroke-opacity:1"
           d="m 2.5041905,-1.8359561 a 7.4044273,7.386043 89.999928 0 1 -6.8148088,-7.93584 7.4044273,7.386043 89.999928 0 1 7.9161692,-6.8318029 7.4044273,7.386043 89.999928 0 1 6.8148051,7.9358729 7.4044273,7.386043 89.999928 0 1 -7.9161655,6.83177 z"
           id="path7989"
           inkscape:connector-curvature="0" />
        <path
           style="fill:#9e9e9e;fill-opacity:1;fill-rule:nonzero;stroke:#000000;stroke-width:0.74083334;stroke-miterlimit:4;stroke-dasharray:none;stroke-dashoffset:0;stroke-opacity:1"
           d="m 23.713903,-3.9326061 a 7.3685538,7.3868948 4.8853674e-4 0 1 -10.419934,-0.12844 7.3685538,7.3868948 4.8853674e-4 0 1 0.128116,-10.4458669 7.3685538,7.3868948 4.8853674e-4 0 1 10.419965,0.128435 7.3685538,7.3868948 4.8853674e-4 0 1 -0.128147,10.4458719 z"
           id="path1231"
           inkscape:connector-curvature="0" />
      </g>
      <g
         transform="translate(-1.171214)"
         id="g4567">
        <path
           style="fill:#9e9e9e;fill-opacity:1;fill-rule:nonzero;stroke:#000000;stroke-width:0.74083334;stroke-miterlimit:4;stroke-dasharray:none;stroke-dashoffset:0;stroke-opacity:1"
           d="m 136.70884,-16.440111 a 7.3988285,7.3804581 89.999792 0 1 5.59105,8.8357049 7.3988285,7.3804581 89.999792 0 1 -8.81376,5.60496 7.3988285,7.3804581 89.999792 0 1 -5.59108,-8.8357289 7.3988285,7.3804581 89.999792 0 1 8.81379,-5.604936 z"
           id="path6254"
           inkscape:connector-curvature="0" />
        <path
           style="fill:#9e9e9e;fill-opacity:1;fill-rule:nonzero;stroke:#000000;stroke-width:0.74083334;stroke-miterlimit:4;stroke-dasharray:none;stroke-dashoffset:0;stroke-opacity:1"
           d="m 111.20177,-11.135807 a 7.4006529,7.3822774 89.999756 0 1 -5.2193,9.0643509 7.4006529,7.3822774 89.999756 0 1 -9.041838,-5.23226 7.4006529,7.3822774 89.999756 0 1 5.219268,-9.0643769 7.4006529,7.3822774 89.999756 0 1 9.04187,5.232286 z"
           id="path9704"
           inkscape:connector-curvature="0" />
        <path
           style="fill:#9e9e9e;fill-opacity:1;fill-rule:nonzero;stroke:#000000;stroke-width:0.74083334;stroke-miterlimit:4;stroke-dasharray:none;stroke-dashoffset:0;stroke-opacity:1"
           d="m 150.40346,-1.8250561 a 7.397645,7.3792776 89.999973 0 1 -7.16922,-7.602346 7.397645,7.3792776 89.999973 0 1 7.5835,-7.1870979 7.397645,7.3792776 89.999973 0 1 7.16923,7.6023809 7.397645,7.3792776 89.999973 0 1 -7.58351,7.187063 z"
           id="path5123"
           inkscape:connector-curvature="0" />
        <path
           style="fill:#9e9e9e;fill-opacity:1;fill-rule:nonzero;stroke:#000000;stroke-width:0.74083334;stroke-miterlimit:4;stroke-dasharray:none;stroke-dashoffset:0;stroke-opacity:1"
           d="m 85.390058,-2.5308461 a 7.4045887,7.3862039 89.999622 0 1 -3.50432,-9.8647829 7.4045887,7.3862039 89.999622 0 1 9.840287,-3.513074 7.4045887,7.3862039 89.999622 0 1 3.504351,9.8648069 7.4045887,7.3862039 89.999622 0 1 -9.840318,3.51305 z"
           id="path9560"
           inkscape:connector-curvature="0" />
        <path
           style="fill:#9e9e9e;fill-opacity:1;fill-rule:nonzero;stroke:#000000;stroke-width:0.74083334;stroke-miterlimit:4;stroke-dasharray:none;stroke-dashoffset:0;stroke-opacity:1"
           d="m 165.72387,-1.8280261 a 7.4026132,7.3842335 89.999947 0 1 -6.97355,-7.792593 7.4026132,7.3842335 89.999947 0 1 7.77324,-6.9909049 7.4026132,7.3842335 89.999947 0 1 6.97355,7.7926219 7.4026132,7.3842335 89.999947 0 1 -7.77324,6.990876 z"
           id="path2715"
           inkscape:connector-curvature="0" />
        <path
           style="fill:#9e9e9e;fill-opacity:1;fill-rule:nonzero;stroke:#000000;stroke-width:0.74083334;stroke-miterlimit:4;stroke-dasharray:none;stroke-dashoffset:0;stroke-opacity:1"
           d="m 124.47001,-3.6722261 a 7.3818825,7.4002568 4.8404236e-4 0 1 -10.41944,-0.6497 7.3818825,7.4002568 4.8404236e-4 0 1 0.64808,-10.4453659 7.3818825,7.4002568 4.8404236e-4 0 1 10.41944,0.649694 7.3818825,7.4002568 4.8404236e-4 0 1 -0.64808,10.4453719 z"
           id="path4880"
           inkscape:connector-curvature="0" />
      </g>
      <g
         transform="translate(13.346698)"
         id="g4559">
        <path
           style="fill:#9e9e9e;fill-opacity:1;fill-rule:nonzero;stroke:#000000;stroke-width:0.74083334;stroke-miterlimit:4;stroke-dasharray:none;stroke-dashoffset:0;stroke-opacity:1"
           d="m 251.0538,-8.8206571 a 7.3751388,7.3934966 5.2635174e-5 0 1 -7.7625,6.983611 7.3751388,7.3934966 5.2635174e-5 0 1 -6.96626,-7.781819 7.3751388,7.3934966 5.2635174e-5 0 1 7.76252,-6.9836379 7.3751388,7.3934966 5.2635174e-5 0 1 6.96624,7.7818459 z"
           id="path8991"
           inkscape:connector-curvature="0" />
        <path
           style="fill:#9e9e9e;fill-opacity:1;fill-rule:nonzero;stroke:#000000;stroke-width:0.74083304;stroke-miterlimit:4;stroke-dasharray:none;stroke-dashoffset:0;stroke-opacity:1"
           d="m 194.60743,-16.168831 a 7.3834188,7.4017966 3.1535522e-4 0 1 9.4744,4.400121 7.3834188,7.4017966 3.1535522e-4 0 1 -4.38919,9.4980239 7.3834188,7.4017966 3.1535522e-4 0 1 -9.47444,-4.40013 7.3834188,7.4017966 3.1535522e-4 0 1 4.38923,-9.4980149 z"
           id="path2369"
           inkscape:connector-curvature="0" />
        <path
           style="fill:#9e9e9e;fill-opacity:1;fill-rule:nonzero;stroke:#000000;stroke-width:0.74083334;stroke-miterlimit:4;stroke-dasharray:none;stroke-dashoffset:0;stroke-opacity:1"
           d="m 217.95509,-14.3745 a 7.3970133,7.3786471 89.999512 0 1 -0.14999,10.4598439 7.3970133,7.3786471 89.999512 0 1 -10.43387,-0.15037 7.3970133,7.3786471 89.999512 0 1 0.14999,-10.4598679 7.3970133,7.3786471 89.999512 0 1 10.4339,0.150363 z"
           id="path5893"
           inkscape:connector-curvature="0" />
        <path
           style="fill:#9e9e9e;fill-opacity:1;fill-rule:nonzero;stroke:#000000;stroke-width:0.74083304;stroke-miterlimit:4;stroke-dasharray:none;stroke-dashoffset:0;stroke-opacity:1"
           d="m 260.67713,-16.476073 a 7.4053283,7.3869417 89.999809 0 1 5.76369,8.7345169 7.4053283,7.3869417 89.999809 0 1 -8.71283,5.77808 7.4053283,7.3869417 89.999809 0 1 -5.76369,-8.7345559 7.4053283,7.3869417 89.999809 0 1 8.71283,-5.778041 z"
           id="path9181"
           inkscape:connector-curvature="0" />
        <path
           style="fill:#9e9e9e;fill-opacity:1;fill-rule:nonzero;stroke:#000000;stroke-width:0.74083334;stroke-miterlimit:4;stroke-dasharray:none;stroke-dashoffset:0;stroke-opacity:1"
           d="m 184.58209,-2.4307061 a 7.3849109,7.4032924 3.5666232e-4 0 1 -9.71739,-3.83647 7.3849109,7.4032924 3.5666232e-4 0 1 3.82693,-9.7416119 7.3849109,7.4032924 3.5666232e-4 0 1 9.71745,3.83651 7.3849109,7.4032924 3.5666232e-4 0 1 -3.82699,9.7415719 z"
           id="path9417"
           inkscape:connector-curvature="0" />
        <path
           style="fill:#9e9e9e;fill-opacity:1;fill-rule:nonzero;stroke:#000000;stroke-width:0.74083334;stroke-miterlimit:4;stroke-dasharray:none;stroke-dashoffset:0;stroke-opacity:1"
           d="m 230.34533,-2.1439461 a 7.3840147,7.402394 2.7386143e-4 0 1 -9.2273,-4.90139 7.3840147,7.402394 2.7386143e-4 0 1 4.88922,-9.2502699 7.3840147,7.402394 2.7386143e-4 0 1 9.2273,4.901425 7.3840147,7.402394 2.7386143e-4 0 1 -4.88922,9.2502349 z"
           id="path0387"
           inkscape:connector-curvature="0" />
      </g>
      <g
         transform="translate(20.10834)"
         id="g4551">
        <path
           style="fill:#9e9e9e;fill-opacity:1;fill-rule:nonzero;stroke:#000000;stroke-width:0.74083334;stroke-miterlimit:4;stroke-dasharray:none;stroke-dashoffset:0;stroke-opacity:1"
           d="m 336.93838,-16.612621 a 7.3948232,7.3764627 89.999977 0 1 7.20434,7.5633809 7.3948232,7.3764627 89.999977 0 1 -7.5446,7.222344 7.3948232,7.3764627 89.999977 0 1 -7.20441,-7.563448 7.3948232,7.3764627 89.999977 0 1 7.54467,-7.2222769 z"
           id="path5720"
           inkscape:connector-curvature="0" />
        <path
           style="fill:#9e9e9e;fill-opacity:1;fill-rule:nonzero;stroke:#000000;stroke-width:0.74083334;stroke-miterlimit:4;stroke-dasharray:none;stroke-dashoffset:0;stroke-opacity:1"
           d="m 302.60013,-15.92139 a 7.3864823,7.4048678 3.7533195e-4 0 1 9.82679,3.551949 7.3864823,7.4048678 3.7533195e-4 0 1 -3.54313,9.8512749 7.3864823,7.4048678 3.7533195e-4 0 1 -9.82682,-3.55198 7.3864823,7.4048678 3.7533195e-4 0 1 3.54316,-9.8512439 z"
           id="path2774"
           inkscape:connector-curvature="0" />
        <path
           style="fill:#9e9e9e;fill-opacity:1;fill-rule:nonzero;stroke:#000000;stroke-width:0.74083334;stroke-miterlimit:4;stroke-dasharray:none;stroke-dashoffset:0;stroke-opacity:1"
           d="m 281.05887,-13.00532 a 7.4004793,7.3821043 89.999571 0 1 -2.56701,10.1445139 7.4004793,7.3821043 89.999571 0 1 -10.11936,-2.5734 7.4004793,7.3821043 89.999571 0 1 2.56701,-10.1445439 7.4004793,7.3821043 89.999571 0 1 10.11936,2.57343 z"
           id="path9139"
           inkscape:connector-curvature="0" />
        <path
           style="fill:#9e9e9e;fill-opacity:1;fill-rule:nonzero;stroke:#000000;stroke-width:0.74083334;stroke-miterlimit:4;stroke-dasharray:none;stroke-dashoffset:0;stroke-opacity:1"
           d="m 291.21679,-16.559305 a 7.4060613,7.3876729 89.999871 0 1 6.33338,8.3299189 7.4060613,7.3876729 89.999871 0 1 -8.30924,6.34917 7.4060613,7.3876729 89.999871 0 1 -6.3334,-8.3299819 7.4060613,7.3876729 89.999871 0 1 8.30926,-6.349107 z"
           id="path4737"
           inkscape:connector-curvature="0" />
        <path
           style="fill:#9e9e9e;fill-opacity:1;fill-rule:nonzero;stroke:#000000;stroke-width:0.74083334;stroke-miterlimit:4;stroke-dasharray:none;stroke-dashoffset:0;stroke-opacity:1"
           d="m 322.97916,-16.412356 a 7.3973089,7.3789422 89.999778 0 1 5.45065,8.9209099 7.3973089,7.3789422 89.999778 0 1 -8.89876,5.46425 7.3973089,7.3789422 89.999778 0 1 -5.45068,-8.9209399 7.3973089,7.3789422 89.999778 0 1 8.89879,-5.46422 z"
           id="path3187"
           inkscape:connector-curvature="0" />
        <path
           style="fill:#9e9e9e;fill-opacity:1;fill-rule:nonzero;stroke:#000000;stroke-width:0.74083334;stroke-miterlimit:4;stroke-dasharray:none;stroke-dashoffset:0;stroke-opacity:1"
           d="m 358.70743,-12.851542 a 7.3952886,7.3769265 89.999582 0 1 -2.80324,10.0738459 7.3952886,7.3769265 89.999582 0 1 -10.04887,-2.81022 7.3952886,7.3769265 89.999582 0 1 2.80324,-10.0739099 7.3952886,7.3769265 89.999582 0 1 10.04887,2.810221 z"
           id="path7392"
           inkscape:connector-curvature="0" />
        <path
           style="fill:#9e9e9e;fill-opacity:1;fill-rule:nonzero;stroke:#000000;stroke-width:0.74083334;stroke-miterlimit:4;stroke-dasharray:none;stroke-dashoffset:0;stroke-opacity:1"
           d="m 369.40691,-1.9930561 a 7.3868942,7.4052806 2.0768531e-4 0 1 -8.82117,-5.61026 7.3868942,7.4052806 2.0768531e-4 0 1 5.5963,-8.8431539 7.3868942,7.4052806 2.0768531e-4 0 1 8.82123,5.610261 7.3868942,7.4052806 2.0768531e-4 0 1 -5.59636,8.8431529 z"
           id="path8958"
           inkscape:connector-curvature="0" />
      </g>
      <g
         transform="translate(6.1136288)"
         id="g4574">
        <text
           xml:space="preserve"
           style="font-style:normal;font-weight:normal;font-size:7.05555534px;line-height:1.25;font-family:sans-serif;text-align:center;letter-spacing:0px;word-spacing:0px;text-anchor:middle;fill:#000000;fill-opacity:1;stroke:none;stroke-width:0.74083334;stroke-miterlimit:4;stroke-dasharray:none"
           x="174.04564"
           y="-42.216995"
           id="text5575"><tspan
             sodipodi:role="line"
             id="tspan5573"
             x="174.04564"
             y="-42.216995"
             style="font-size:7.05555534px;stroke-width:0.74083334;stroke-miterlimit:4;stroke-dasharray:none">Amino</tspan><tspan
             sodipodi:role="line"
             x="174.04564"
             y="-33.397552"
             style="font-size:7.05555534px;stroke-width:0.74083334;stroke-miterlimit:4;stroke-dasharray:none"
             id="tspan5577"> Acids</tspan></text>
        <path
           style="fill:none;stroke:#0000ff;stroke-width:0.26458332px;stroke-linecap:butt;stroke-linejoin:miter;stroke-opacity:1"
           d="m 150.66132,-17.1353 24.43064,-16.014922"
           id="path5653"
           inkscape:connector-curvature="0" />
        <path
           style="fill:none;stroke:#0000ff;stroke-width:0.26458332px;stroke-linecap:butt;stroke-linejoin:miter;stroke-opacity:1"
           d="M 197.04156,-17.076888 175.30252,-33.132503"
           id="path5659"
           inkscape:connector-curvature="0" />
      </g>
    </g>
  </g>
</svg>
